[
  {
    "id":243283,
    "data_realizacao":null,
    "hora_realizacao":null,
    "placar_oficial_visitante":null,
    "placar_oficial_mandante":null,
    "placar_penaltis_visitante":null,
    "placar_penaltis_mandante":null,
    "equipes":{
      "mandante":{
        "id":262,
        "nome_popular":"Flamengo",
        "sigla":"FLA",
        "escudo":"https://s.glbimg.com/es/sde/f/organizacoes/2018/04/10/Flamengo-2018.svg"
      },
      "visitante":{
        "id":354,
        "nome_popular":"Cear\u00e1",
        "sigla":"CEA",
        "escudo":"https://s.glbimg.com/es/sde/f/organizacoes/2019/10/10/ceara.svg"
      }
    },
    "sede":null,
    "transmissao":null
  },
  {
    "id":243284,
    "data_realizacao":null,
    "hora_realizacao":null,
    "placar_oficial_visitante":null,
    "placar_oficial_mandante":null,
    "placar_penaltis_visitante":null,
    "placar_penaltis_mandante":null,
    "equipes":{
      "mandante":{
        "id":267,
        "nome_popular":"Vasco",
        "sigla":"VAS",
        "escudo":"https://s.glbimg.com/es/sde/f/organizacoes/2018/03/11/vasco.svg"
      },
      "visitante":{
        "id":263,
        "nome_popular":"Botafogo",
        "sigla":"BOT",
        "escudo":"https://s.glbimg.com/es/sde/f/organizacoes/2019/02/04/botafogo-svg.svg"
      }
    },
    "sede":null,
    "transmissao":null
  },
  {
    "id":243285,
    "data_realizacao":null,
    "hora_realizacao":null,
    "placar_oficial_visitante":null,
    "placar_oficial_mandante":null,
    "placar_penaltis_visitante":null,
    "placar_penaltis_mandante":null,
    "equipes":{
      "mandante":{
        "id":276,
        "nome_popular":"S\u00e3o Paulo",
        "sigla":"SAO",
        "escudo":"https://s.glbimg.com/es/sde/f/organizacoes/2018/03/11/sao-paulo.svg"
      },
      "visitante":{
        "id":277,
        "nome_popular":"Santos",
        "sigla":"SAN",
        "escudo":"https://s.glbimg.com/es/sde/f/organizacoes/2018/03/12/santos.svg"
      }
    },
    "sede":null,
    "transmissao":null
  },
  {
    "id":243286,
    "data_realizacao":null,
    "hora_realizacao":null,
    "placar_oficial_visitante":null,
    "placar_oficial_mandante":null,
    "placar_penaltis_visitante":null,
    "placar_penaltis_mandante":null,
    "equipes":{
      "mandante":{
        "id":280,
        "nome_popular":"Bragantino",
        "sigla":"BGT",
        "escudo":"https://s.glbimg.com/es/sde/f/organizacoes/2019/12/30/svg.svg"
      },
      "visitante":{
        "id":282,
        "nome_popular":"Atl\u00e9tico-MG",
        "sigla":"CAM",
        "escudo":"https://s.glbimg.com/es/sde/f/organizacoes/2018/03/10/atletico-mg.svg"
      }
    },
    "sede":null,
    "transmissao":null
  },
  {
    "id":243287,
    "data_realizacao":null,
    "hora_realizacao":null,
    "placar_oficial_visitante":null,
    "placar_oficial_mandante":null,
    "placar_penaltis_visitante":null,
    "placar_penaltis_mandante":null,
    "equipes":{
      "mandante":{
        "id":264,
        "nome_popular":"Corinthians",
        "sigla":"COR",
        "escudo":"https://s.glbimg.com/es/sde/f/organizacoes/2019/09/30/Corinthians.svg"
      },
      "visitante":{
        "id":266,
        "nome_popular":"Fluminense",
        "sigla":"FLU",
        "escudo":"https://s.glbimg.com/es/sde/f/organizacoes/2018/03/11/fluminense.svg"
      }
    },
    "sede":null,
    "transmissao":null
  },
  {
    "id":243288,
    "data_realizacao":null,
    "hora_realizacao":null,
    "placar_oficial_visitante":null,
    "placar_oficial_mandante":null,
    "placar_penaltis_visitante":null,
    "placar_penaltis_mandante":null,
    "equipes":{
      "mandante":{
        "id":285,
        "nome_popular":"Internacional",
        "sigla":"INT",
        "escudo":"https://s.glbimg.com/es/sde/f/organizacoes/2018/03/11/internacional.svg"
      },
      "visitante":{
        "id":290,
        "nome_popular":"Goi\u00e1s",
        "sigla":"GOI",
        "escudo":"https://s.glbimg.com/es/sde/f/organizacoes/2019/05/01/Goias_SVG.svg"
      }
    },
    "sede":null,
    "transmissao":null
  },
  {
    "id":243289,
    "data_realizacao":null,
    "hora_realizacao":null,
    "placar_oficial_visitante":null,
    "placar_oficial_mandante":null,
    "placar_penaltis_visitante":null,
    "placar_penaltis_mandante":null,
    "equipes":{
      "mandante":{
        "id":292,
        "nome_popular":"Sport",
        "sigla":"SPO",
        "escudo":"https://s.glbimg.com/es/sde/f/organizacoes/2018/03/11/sport.svg"
      },
      "visitante":{
        "id":275,
        "nome_popular":"Palmeiras",
        "sigla":"PAL",
        "escudo":"https://s.glbimg.com/es/sde/f/organizacoes/2019/07/06/Palmeiras.svg"
      }
    },
    "sede":null,
    "transmissao":null
  },
  {
    "id":243290,
    "data_realizacao":null,
    "hora_realizacao":null,
    "placar_oficial_visitante":null,
    "placar_oficial_mandante":null,
    "placar_penaltis_visitante":null,
    "placar_penaltis_mandante":null,
    "equipes":{
      "mandante":{
        "id":294,
        "nome_popular":"Coritiba",
        "sigla":"CFC",
        "escudo":"https://s.glbimg.com/es/sde/f/organizacoes/2018/03/11/coritiba.svg"
      },
      "visitante":{
        "id":293,
        "nome_popular":"Athletico-PR",
        "sigla":"CAP",
        "escudo":"https://s.glbimg.com/es/sde/f/organizacoes/2019/09/09/Athletico-PR.svg"
      }
    },
    "sede":null,
    "transmissao":null
  },
  {
    "id":243291,
    "data_realizacao":null,
    "hora_realizacao":null,
    "placar_oficial_visitante":null,
    "placar_oficial_mandante":null,
    "placar_penaltis_visitante":null,
    "placar_penaltis_mandante":null,
    "equipes":{
      "mandante":{
        "id":356,
        "nome_popular":"Fortaleza",
        "sigla":"FOR",
        "escudo":"https://s.glbimg.com/es/sde/f/organizacoes/2018/06/10/optimised.svg"
      },
      "visitante":{
        "id":284,
        "nome_popular":"Gr\u00eamio",
        "sigla":"GRE",
        "escudo":"https://s.glbimg.com/es/sde/f/organizacoes/2018/03/12/gremio.svg"
      }
    },
    "sede":null,
    "transmissao":null
  },
  {
    "id":243292,
    "data_realizacao":null,
    "hora_realizacao":null,
    "placar_oficial_visitante":null,
    "placar_oficial_mandante":null,
    "placar_penaltis_visitante":null,
    "placar_penaltis_mandante":null,
    "equipes":{
      "mandante":{
        "id":373,
        "nome_popular":"Atl\u00e9tico-GO",
        "sigla":"ACG",
        "escudo":"https://s.glbimg.com/es/sde/f/equipes/2018/03/11/atletico-go.svg"
      },
      "visitante":{
        "id":265,
        "nome_popular":"Bahia",
        "sigla":"BAH",
        "escudo":"https://s.glbimg.com/es/sde/f/organizacoes/2018/03/11/bahia.svg"
      }
    },
    "sede":null,
    "transmissao":null
  }
]